{
    "@class": "com.kony.gen.viz.model.component.KVizRichText",
    "DNDConfig": null,
    "__parentReadjusting__": false,
    "_height_": {
        "type": "string",
        "value": "35dp"
    },
    "_left_": {
        "type": "string",
        "value": "19dp"
    },
    "_margin_": [
        0,
        0,
        0,
        0
    ],
    "_padding_": [
        0,
        0,
        0,
        0
    ],
    "_skin_": "s3546183b6134084b1eba45fed89a62c",
    "_text_": "Мультиплекс Караван",
    "_top_": {
        "type": "string",
        "value": "242dp"
    },
    "_width_": {
        "type": "string",
        "value": "62.04%"
    },
    "_wrapping_": 2,
    "canUpdateUI": true,
    "centerx": {
        "type": "string",
        "value": "49.97%"
    },
    "containerweight": 100,
    "contentalignment": 5,
    "id": "txtCinemaTitle",
    "info": null,
    "iscustomlayout": false,
    "isvisible": true,
    "kuid": "a71aec10ea4643f2b0ad7870d3fde90a",
    "linkskin": "s3ec88d11e7343f3b7aea9de242feec5",
    "name": "kony.ui.RichText",
    "parent": "contChosenCinema",
    "pf": "frmChosenCinema",
    "retaincontentalignment": false,
    "retainflexpositionproperties": false,
    "wType": "RichText",
    "widgetalignment": 5,
    "zindex": 1
}