{
    "@class": "com.kony.gen.viz.model.component.KVizImage2",
    "DNDConfig": null,
    "__parentReadjusting__": false,
    "_base64_": null,
    "_height_": {
        "type": "string",
        "value": "123dp"
    },
    "_left_": {
        "type": "string",
        "value": "0dp"
    },
    "_margin_": [
        0,
        0,
        0,
        0
    ],
    "_padding_": [
        0,
        0,
        0,
        0
    ],
    "_skin_": "sfeb5600f5134a0dac1851ddd163c17c",
    "_src_": "imagedrag.png",
    "_top_": {
        "type": "string",
        "value": "0dp"
    },
    "_width_": {
        "type": "string",
        "value": "135dp"
    },
    "canUpdateUI": true,
    "centery": {
        "type": "string",
        "value": "50%"
    },
    "containerId": true,
    "containerweight": 100,
    "context": {
        "channel": "mobile",
        "formID": "FBox0cb546b8d7b4f41",
        "templateType": "segments",
        "topLevelBox": null
    },
    "id": "imgFilm",
    "imagescalemode": 0,
    "imagewhiledownloading": "film2.png",
    "info": null,
    "invokedProperty": "imageWhileDownloading",
    "iscustomlayout": false,
    "isvisible": true,
    "kuid": "d09db5cbb02a4fb2bc018f8168d29f09",
    "name": "kony.ui.Image2",
    "parent": "FBox0cb546b8d7b4f41",
    "pf": "FBox0cb546b8d7b4f41",
    "retaincontentalignment": false,
    "retainflexpositionproperties": false,
    "srcType": 1,
    "wType": "Image",
    "widgetalignment": 5,
    "zindex": 1
}