{
    "AS_Label_h186d5eab84544149e5c4ff45a1a5952": {
        "id": "AS_Label_h186d5eab84544149e5c4ff45a1a5952",
        "type": "ACTION_SEQUENCE",
        "params": [{
            "datatype": "collection",
            "name": "eventobject"
        }, {
            "datatype": "string",
            "name": "x"
        }, {
            "datatype": "string",
            "name": "y"
        }],
        "contextObj": {
            "name": "frmChosenFilm",
            "type": "forms",
            "platform": "",
            "KUID": "j9914c3d67b545ba81a78d4b4348c2f0"
        },
        "language": "js",
        "actions": [{
            "id": "INVOKE_FUNCTION___e19f6f44063e4d8baaf422d5b1dadc1d",
            "type": "INVOKE_FUNCTION",
            "sequenceKUID": "goBack",
            "display": "goBack",
            "inputparams": [],
            "parentId": null,
            "callbackType": null,
            "disabled": null,
            "source": "controller"
        }]
    }
}