{
    "@class": "com.kony.gen.viz.model.component.KVizListBox",
    "DNDConfig": null,
    "__parentReadjusting__": false,
    "_height_": {
        "type": "string",
        "value": "40dp"
    },
    "_left_": {
        "type": "string",
        "value": "85dp"
    },
    "_margin_": [
        0,
        0,
        0,
        0
    ],
    "_padding_": [
        3,
        0,
        0,
        0
    ],
    "_placeholder_": "TODAY",
    "_skin_": "s895ea91fa304900b11b70cb2cf474fb",
    "_top_": {
        "type": "string",
        "value": "101dp"
    },
    "_width_": {
        "type": "string",
        "value": "169dp"
    },
    "android": {
        "viewType": 0
    },
    "canUpdateUI": true,
    "centerx": {
        "type": "string",
        "value": "293dp"
    },
    "containerId": true,
    "containerweight": 100,
    "contentalignment": 5,
    "dropdownimage": "listboxarw.png",
    "focusskin": "sdf3023a23d14ac08739b5cc09a0a93d",
    "groupcells": false,
    "id": "listWhen",
    "info": null,
    "iscustomlayout": false,
    "isvisible": true,
    "kuid": "h9de3d2192e745ffa5165f423ca980e5",
    "masterdata": [
        [
            "lb1",
            "Placeholder One"
        ],
        [
            "lb2",
            "Placeholder Two"
        ],
        [
            "lb3",
            "Placeholder Three"
        ]
    ],
    "name": "kony.ui.ListBox",
    "parent": "CopyFBox0fc526bff657f40",
    "pf": "CopyFBox0fc526bff657f40",
    "retaincontentalignment": false,
    "retainflexpositionproperties": false,
    "selectedkey": null,
    "selectedkeys": null,
    "selectedkeyvalue": null,
    "selectedkeyvalues": null,
    "size": 18,
    "viewtype": 0,
    "wType": "ListBox",
    "zindex": 1
}